; Engine configuration file.
; It's best edited using the editor UI and not directly,
; since the parameters that go here are not all obvious.
;
; Format:
;   [section] ; section goes between []
;   param=value ; assign values to parameters

config_version=4

_global_script_classes=[ {
"base": "Sprite",
"class": "Boid",
"language": "GDScript",
"path": "res://scenes/boid/Boid.gd"
}, {
"base": "Control",
"class": "ExplicitHSlider",
"language": "GDScript",
"path": "res://scenes/interface/_components/explicit_h_slider/ExplicitHSlider.gd"
}, {
"base": "Node2D",
"class": "Grid_",
"language": "GDScript",
"path": "res://scenes/grid/Grid.gd"
} ]
_global_script_class_icons={
"Boid": "",
"ExplicitHSlider": "",
"Grid_": ""
}

[application]

config/name="Godot 2D Autonomous Agent Behaviour - Flock"
run/main_scene="res://scenes/simulation/Simulation.tscn"
config/icon="res://icon.png"

[display]

window/size/width=1920
window/size/height=1080
window/size/fullscreen=true
window/dpi/allow_hidpi=true
window/energy_saving/keep_screen_on=false

[rendering]

environment/default_environment="res://default_env.tres"
